<svg width="32" height="32" xmlns="http://www.w3.org/2000/svg">

 <g>
  <title>background</title>
  <rect fill="none" id="canvas_background" height="402" width="582" y="-1" x="-1"/>
 </g>
 <g>
  <title>Layer 1</title>
  <path id="svg_1" fill="#9b9b9b" d="m21,6c-3.9,0 -7.5,2.1 -9.1,5.2c-1.1,-0.8 -2.5,-1.2 -3.9,-1.2c-3.9,0 -7,3.1 -7,7s3.1,7 7,7l13,0c5.5,0 10,-4 10,-9c0,-5 -4.5,-9 -10,-9z"/>
 </g>
</svg>