<svg width="32" height="32" xmlns="http://www.w3.org/2000/svg">

 <g>
  <title>background</title>
  <rect fill="none" id="canvas_background" height="402" width="582" y="-1" x="-1"/>
 </g>
 <g>
  <title>Layer 1</title>
  <path id="svg_2" fill="#a7cced" d="m16,22c-0.6,0 -1,0.4 -1,1l0,3c0,0.6 0.4,1 1,1s1,-0.4 1,-1l0,-3c0,-0.6 -0.4,-1 -1,-1z"/>
  <path id="svg_3" fill="#a7cced" d="m16,28c-0.6,0 -1,0.4 -1,1l0,1c0,0.6 0.4,1 1,1s1,-0.4 1,-1l0,-1c0,-0.6 -0.4,-1 -1,-1z"/>
  <path id="svg_4" fill="#a7cced" d="m10,22c-0.6,0 -1,0.4 -1,1l0,3c0,0.6 0.4,1 1,1s1,-0.4 1,-1l0,-3c0,-0.6 -0.4,-1 -1,-1z"/>
  <path id="svg_5" fill="#a7cced" d="m10,28c-0.6,0 -1,0.4 -1,1l0,1c0,0.6 0.4,1 1,1s1,-0.4 1,-1l0,-1c0,-0.6 -0.4,-1 -1,-1z"/>
  <path id="svg_6" fill="#a7cced" d="m22,22c-0.6,0 -1,0.4 -1,1l0,3c0,0.6 0.4,1 1,1s1,-0.4 1,-1l0,-3c0,-0.6 -0.4,-1 -1,-1z"/>
  <path id="svg_7" fill="#a7cced" d="m22,28c-0.6,0 -1,0.4 -1,1l0,1c0,0.6 0.4,1 1,1s1,-0.4 1,-1l0,-1c0,-0.6 -0.4,-1 -1,-1z"/>
  <path id="svg_9" fill="#fdb813" d="m16.1,9.5c-1.4,0.9 -2.4,2.2 -2.8,3.7c-0.1,0.3 -0.4,0.6 -0.7,0.7c-0.1,0 -0.2,0 -0.2,0c-0.3,0 -0.5,-0.1 -0.7,-0.3c-1,-1.1 -2.3,-1.6 -3.7,-1.6c-1.2,0 -2.3,0.4 -3.2,1.1c-0.3,0.2 -0.6,0.3 -1,0.2c-0.3,-0.1 -0.6,-0.4 -0.7,-0.7c0,-0.5 -0.1,-1.1 -0.1,-1.6c0,-3.9 3.1,-7 7,-7c2.8,0 5.3,1.7 6.5,4.3c0.1,0.4 0,0.9 -0.4,1.2z"/>
  <path id="svg_11" fill="#dddddd" d="m31,15c0,5 -4.5,9 -10,9l-13,0c-3.9,0 -7,-3.1 -7,-7c0,-2.1 0.9,-4 2.5,-5.4c1.3,-1 2.9,-1.6 4.5,-1.6c1.4,0 2.8,0.4 3.9,1.2c0.7,-1.3 1.7,-2.5 3,-3.4c1.8,-1.2 3.9,-1.8 6.1,-1.8c5.5,0 10,4 10,9z"/>
 </g>
</svg>